{
    "results": [
      {
        "id": 1251687,
        "adult": false
      },
      {
        "id": 1282951,
        "adult": false
      },
      {
        "id": 65012,
        "adult": false
      },
      {
        "id": 1294267,
        "adult": false
      },
      {
        "id": 995243,
        "adult": null
      },
      {
        "id": 1297493,
        "adult": true
      },
      {
        "id": 424488,
        "adult": false
      },
      {
        "id": 870095,
        "adult": false
      },
      {
        "id": 5503,
        "adult": false
      },
      {
        "id": 1030304,
        "adult": false
      },
      {
        "id": 1037264,
        "adult": false
      },
      {
        "id": 1287216,
        "adult": false
      },
      {
        "id": 1295719,
        "adult": false
      },
      {
        "id": 1296499,
        "adult": false
      },
      {
        "id": 1247724,
        "adult": false
      },
      {
        "id": 1275102,
        "adult": false
      },
      {
        "id": 1291254,
        "adult": false
      },
      {
        "id": 1240647,
        "adult": false
      },
      {
        "id": 1260601,
        "adult": false
      },
      {
        "id": 1273898,
        "adult": false
      },
      {
        "id": 1276345,
        "adult": false
      },
      {
        "id": 1281684,
        "adult": false
      },
      {
        "id": 1288640,
        "adult": false
      },
      {
        "id": 1290787,
        "adult": false
      },
      {
        "id": 1294025,
        "adult": false
      },
      {
        "id": 1294913,
        "adult": false
      },
      {
        "id": 1296713,
        "adult": false
      },
      {
        "id": 1297122,
        "adult": null
      },
      {
        "id": 1297339,
        "adult": false
      },
      {
        "id": 1086747,
        "adult": false
      },
      {
        "id": 1292891,
        "adult": false
      },
      {
        "id": 1292894,
        "adult": false
      },
      {
        "id": 1297370,
        "adult": false
      },
      {
        "id": 1297117,
        "adult": false
      },
      {
        "id": 1297121,
        "adult": false
      },
      {
        "id": 1297124,
        "adult": false
      },
      {
        "id": 1297125,
        "adult": false
      },
      {
        "id": 1297128,
        "adult": false
      },
      {
        "id": 1085836,
        "adult": false
      },
      {
        "id": 675082,
        "adult": false
      },
      {
        "id": 1249447,
        "adult": false
      },
      {
        "id": 378209,
        "adult": false
      },
      {
        "id": 1278725,
        "adult": false
      },
      {
        "id": 1186885,
        "adult": false
      },
      {
        "id": 1279080,
        "adult": false
      },
      {
        "id": 1282229,
        "adult": false
      },
      {
        "id": 1297238,
        "adult": false
      },
      {
        "id": 1297241,
        "adult": false
      },
      {
        "id": 1282647,
        "adult": false
      },
      {
        "id": 1297087,
        "adult": false
      },
      {
        "id": 1297381,
        "adult": false
      },
      {
        "id": 1110965,
        "adult": false
      },
      {
        "id": 1297426,
        "adult": false
      },
      {
        "id": 1217876,
        "adult": false
      },
      {
        "id": 1297268,
        "adult": false
      },
      {
        "id": 1297360,
        "adult": false
      },
      {
        "id": 1297420,
        "adult": null
      },
      {
        "id": 1297452,
        "adult": false
      },
      {
        "id": 1297444,
        "adult": false
      },
      {
        "id": 1297269,
        "adult": false
      },
      {
        "id": 1297397,
        "adult": false
      },
      {
        "id": 1297280,
        "adult": false
      },
      {
        "id": 1297403,
        "adult": false
      },
      {
        "id": 1297290,
        "adult": false
      },
      {
        "id": 1297423,
        "adult": false
      },
      {
        "id": 1297293,
        "adult": false
      },
      {
        "id": 1297299,
        "adult": false
      },
      {
        "id": 1297300,
        "adult": false
      },
      {
        "id": 1297305,
        "adult": false
      },
      {
        "id": 1297306,
        "adult": false
      },
      {
        "id": 1221051,
        "adult": false
      },
      {
        "id": 1279065,
        "adult": false
      },
      {
        "id": 1279075,
        "adult": false
      },
      {
        "id": 1280701,
        "adult": false
      },
      {
        "id": 1282221,
        "adult": false
      },
      {
        "id": 1282225,
        "adult": false
      },
      {
        "id": 283378,
        "adult": false
      },
      {
        "id": 1297497,
        "adult": false
      },
      {
        "id": 1297433,
        "adult": null
      },
      {
        "id": 994893,
        "adult": null
      },
      {
        "id": 302946,
        "adult": false
      },
      {
        "id": 278924,
        "adult": false
      },
      {
        "id": 627081,
        "adult": false
      },
      {
        "id": 1223134,
        "adult": false
      },
      {
        "id": 1216195,
        "adult": false
      },
      {
        "id": 389323,
        "adult": false
      },
      {
        "id": 1234783,
        "adult": false
      },
      {
        "id": 1297498,
        "adult": false
      },
      {
        "id": 1092622,
        "adult": false
      },
      {
        "id": 386696,
        "adult": false
      },
      {
        "id": 352179,
        "adult": false
      },
      {
        "id": 317048,
        "adult": false
      },
      {
        "id": 136911,
        "adult": false
      },
      {
        "id": 77877,
        "adult": false
      },
      {
        "id": 269100,
        "adult": false
      },
      {
        "id": 1297499,
        "adult": false
      },
      {
        "id": 610781,
        "adult": false
      },
      {
        "id": 6107,
        "adult": false
      },
      {
        "id": 979660,
        "adult": false
      },
      {
        "id": 675009,
        "adult": false
      }
    ],
    "page": 1,
    "total_pages": 50,
    "total_results": 4926
  }